<?xml version="1.0" encoding="UTF-8" standalone="no"?>
<svg
    xmlns:inkscape="http://www.inkscape.org/namespaces/inkscape"
    xmlns:rdf="http://www.w3.org/1999/02/22-rdf-syntax-ns#"
    xmlns="http://www.w3.org/2000/svg"
    xmlns:cc="http://creativecommons.org/ns#"
    xmlns:dc="http://purl.org/dc/elements/1.1/"
    xmlns:sodipodi="http://sodipodi.sourceforge.net/DTD/sodipodi-0.dtd"
    xmlns:svg="http://www.w3.org/2000/svg"
    xmlns:ns1="http://sozi.baierouge.fr"
    xmlns:xlink="http://www.w3.org/1999/xlink"
    id="svg1772"
    sodipodi:docname="aiga_waiting_room_.svg"
    inkscape:export-filename="/home/joanna/gfx/vector/aiga/aiga_waiting_room_.png"
    viewBox="0 0 354.52 463.62"
    sodipodi:version="0.32"
    inkscape:export-xdpi="38.84103"
    inkscape:output_extension="org.inkscape.output.svg.inkscape"
    inkscape:export-ydpi="38.84103"
    inkscape:version="0.46"
    sodipodi:docbase="/datas/Projs/Cliparts Stocker/tmp/AIGA"
  >
  <sodipodi:namedview
      id="base"
      bordercolor="#666666"
      inkscape:pageshadow="2"
      inkscape:window-width="641"
      pagecolor="#ffffff"
      inkscape:zoom="0.43415836"
      inkscape:window-x="0"
      showgrid="false"
      borderopacity="1.0"
      inkscape:current-layer="svg1772"
      inkscape:cx="305.25953"
      inkscape:cy="417.84947"
      inkscape:window-y="0"
      inkscape:window-height="715"
      inkscape:pageopacity="0.0"
  />
  <g
      id="g1782"
    >
    <g
        id="g1784"
      >
      <g
          id="g1786"
        >
        <path
            id="path1788"
            style="fill:#000000"
            d="m82.882 97.304c26.868 0 48.648-21.784 48.648-48.651 0-26.869-21.78-48.653-48.648-48.653-26.87 0-48.653 21.784-48.653 48.653 0 26.867 21.783 48.651 48.653 48.651z"
        />
        <path
            id="path1790"
            style="fill:#000000"
            d="m82.882 48.653"
        />
      </g
      >
      <path
          id="path1792"
          style="fill:#000000"
          d="m45.918 156.49c-8.75-56 72.002-73.003 85.002-15.75l22 109.67 82.08 0.17c23.96 0 36.42 19.17 36.42 36.91v149.12c0 36.21-51.56 36.04-51.56-0.65v-116.05h-104.83c-24.445 0-39.781-16.78-43.615-35.95l-25.497-127.47z"
      />
      <path
          id="path1794"
          style="fill:#000000"
          d="m181.42 329.7c27.23 0 27.1 40.29 0.37 40.29h-75.27c-36.602 0-73.102-27.5-82.65-70l-23.452-114c-4.7532-25.89 32.5-34.5 38-8l22.24 109.06c6.23 27.8 26.838 42.65 51.762 42.65h69z"
      />
    </g
    >
    <g
        id="g1796"
      >
      <path
          id="path1798"
          style="fill:#000000"
          d="m283.26 81.519l36.2-17.547c5.22-2.349 1.83-9.917-3.65-7.489l-30.77 13.855v-36.402c0-5.716-8.63-5.454-8.63 0l0.13 43.604c0 3.26 3.52 5.609 6.72 3.979z"
      />
      <g
          id="g1800"
        >
        <path
            id="path1802"
            style="fill:#000000"
            d="m283.4 144.28c39.28 0 71.12-31.84 71.12-71.124 0-39.28-31.84-71.124-71.12-71.124s-71.13 31.844-71.13 71.124c0 39.284 31.85 71.124 71.13 71.124z"
        />
        <path
            id="path1804"
            style="fill:#000000"
            d="m283.4 73.156"
        />
      </g
      >
      <g
          id="g1806"
        >
        <path
            id="path1808"
            style="fill:#ffffff"
            d="m283.4 132.2c32.61 0 59.04-26.44 59.04-59.044 0-32.61-26.43-59.045-59.04-59.045s-59.05 26.435-59.05 59.045c0 32.604 26.44 59.044 59.05 59.044z"
        />
        <path
            id="path1810"
            style="fill:#ffffff"
            d="m283.4 73.156"
        />
      </g
      >
      <path
          id="path1812"
          style="fill:#000000"
          d="m283.26 81.519l36.2-17.547c5.22-2.349 1.83-9.917-3.65-7.489l-30.77 13.855v-36.402c0-5.716-8.63-5.454-8.63 0l0.13 43.604c0 3.26 3.52 5.609 6.72 3.979z"
      />
    </g
    >
  </g
  >
  <metadata
    >
    <rdf:RDF
      >
      <cc:Work
        >
        <dc:format
          >image/svg+xml</dc:format
        >
        <dc:type
            rdf:resource="http://purl.org/dc/dcmitype/StillImage"
        />
        <cc:license
            rdf:resource="http://creativecommons.org/licenses/publicdomain/"
        />
        <dc:publisher
          >
          <cc:Agent
              rdf:about="http://openclipart.org/"
            >
            <dc:title
              >Openclipart</dc:title
            >
          </cc:Agent
          >
        </dc:publisher
        >
        <dc:title
          >aiga waiting room</dc:title
        >
        <dc:date
          >2009-04-22T06:40:45</dc:date
        >
        <dc:description
          >Set of international airport symbols.&#13;\n&#13;\nSource: http://www.aiga.org/content.cfm/symbol-signs&#13;\n&#13;\nConverted to SVG by Jean-Victor Balin.</dc:description
        >
        <dc:source
          >https://openclipart.org/detail/25236/aiga-waiting-room-by-anonymous-25236</dc:source
        >
        <dc:creator
          >
          <cc:Agent
            >
            <dc:title
              >Anonymous</dc:title
            >
          </cc:Agent
          >
        </dc:creator
        >
        <dc:subject
          >
          <rdf:Bag
            >
            <rdf:li
              >aiga</rdf:li
            >
            <rdf:li
              >aiga no bg</rdf:li
            >
            <rdf:li
              >black and white</rdf:li
            >
            <rdf:li
              >clock</rdf:li
            >
            <rdf:li
              >externalsource</rdf:li
            >
            <rdf:li
              >icon</rdf:li
            >
            <rdf:li
              >man</rdf:li
            >
            <rdf:li
              >map symbol</rdf:li
            >
            <rdf:li
              >sign</rdf:li
            >
            <rdf:li
              >silhouette</rdf:li
            >
            <rdf:li
              >sitting</rdf:li
            >
            <rdf:li
              >symbol</rdf:li
            >
            <rdf:li
              >waiting</rdf:li
            >
          </rdf:Bag
          >
        </dc:subject
        >
      </cc:Work
      >
      <cc:License
          rdf:about="http://creativecommons.org/licenses/publicdomain/"
        >
        <cc:permits
            rdf:resource="http://creativecommons.org/ns#Reproduction"
        />
        <cc:permits
            rdf:resource="http://creativecommons.org/ns#Distribution"
        />
        <cc:permits
            rdf:resource="http://creativecommons.org/ns#DerivativeWorks"
        />
      </cc:License
      >
    </rdf:RDF
    >
  </metadata
  >
</svg
>
